<?xml version="1.0" encoding="utf-8"?>
<!-- Generator: Adobe Illustrator 23.0.0, SVG Export Plug-In . SVG Version: 6.00 Build 0)  -->
<svg version="1.1" id="Layer_1" xmlns="http://www.w3.org/2000/svg" xmlns:xlink="http://www.w3.org/1999/xlink" x="0px" y="0px"
	 viewBox="0 0 60 60" style="enable-background:new 0 0 60 60;" xml:space="preserve">
<style type="text/css">
	.st0{fill:#B2292E;}
</style>
<g>
	<g>
		<path class="st0" d="M58.6,19.2l-28.1-19c-0.3-0.2-0.7-0.2-1.1,0l-28.1,19C1.2,19.4,1,19.7,1,20v39.1C1,59.6,1.5,60,2,60h56.1
			c0.5,0,0.9-0.4,0.9-0.9V20C59.1,19.7,58.9,19.4,58.6,19.2z M57.2,58.1H2.9V20.5L30,2.1l27.1,18.4V58.1z"/>
	</g>
</g>
<g>
	<g>
		<path class="st0" d="M34.1,8h-8c-0.5,0-0.9,0.4-0.9,0.9s0.4,0.9,0.9,0.9h8C34.6,9.9,35,9.5,35,9S34.6,8,34.1,8z"/>
	</g>
</g>
<g>
	<g>
		<path class="st0" d="M34.1,12h-8c-0.5,0-0.9,0.4-0.9,0.9s0.4,0.9,0.9,0.9h8c0.5,0,0.9-0.4,0.9-0.9S34.6,12,34.1,12z"/>
	</g>
</g>
<g>
	<g>
		<path class="st0" d="M34.1,16.1h-8c-0.5,0-0.9,0.4-0.9,0.9s0.4,0.9,0.9,0.9h8c0.5,0,0.9-0.4,0.9-0.9S34.6,16.1,34.1,16.1z"/>
	</g>
</g>
<g>
	<g>
		<path class="st0" d="M20,43.1h-4c-0.5,0-0.9,0.4-0.9,0.9S15.5,45,16,45h4c0.5,0,0.9-0.4,0.9-0.9C21,43.5,20.5,43.1,20,43.1z"/>
	</g>
</g>
<g>
	<g>
		<path class="st0" d="M20,55.1h-4c-0.5,0-0.9,0.4-0.9,0.9S15.5,57,16,57h4c0.5,0,0.9-0.4,0.9-0.9S20.5,55.1,20,55.1z"/>
	</g>
</g>
<g>
	<g>
		<path class="st0" d="M32,55.1h-4c-0.5,0-0.9,0.4-0.9,0.9S27.5,57,28,57h4c0.5,0,0.9-0.4,0.9-0.9S32.6,55.1,32,55.1z"/>
	</g>
</g>
<path class="st0" d="M36.1,46.1H25V35c0-0.5-0.4-0.9-0.9-0.9H12.9V36h2.1V41c0,0.5,0.4,0.9,0.9,0.9h4c0.5,0,0.9-0.4,0.9-0.9V36h2.1
	v10.1H12.9V48h2.1v5.1c0,0.5,0.4,0.9,0.9,0.9h4c0.5,0,0.9-0.4,0.9-0.9V48h2.1v10.2H25V48h2.1v5.1c0,0.5,0.4,0.9,0.9,0.9h4
	c0.5,0,0.9-0.4,0.9-0.9V48h2.1v10.1H37V47.1C37,46.5,36.6,46.1,36.1,46.1z M19.1,40.1H17V36h2.1V40.1z M19.1,52.1H17V48h2.1V52.1z
	 M31.1,52.1H29V48h2.1V52.1z"/>
<path class="st0" d="M50.1,20.1H10c-0.5,0-0.9,0.4-0.9,0.9v4c0,0.5,0.4,0.9,0.9,0.9h1.1v32.2h1.9V48v-1.9V36v-1.9V26h34.2V34
	c0,0.5,0.4,0.9,0.9,0.9S49,34.5,49,34V26h1.1c0.5,0,0.9-0.4,0.9-0.9v-4C51,20.5,50.6,20.1,50.1,20.1z M49.1,24.1H10.9v-2.1h38.2
	V24.1z"/>
<path class="st0" d="M49,38v20.1h-1.9V38c0-0.5,0.4-0.9,0.9-0.9S49,37.5,49,38z"/>
</svg>
