<?xml version="1.0" encoding="utf-8"?>
<!-- Generator: Adobe Illustrator 23.0.0, SVG Export Plug-In . SVG Version: 6.00 Build 0)  -->
<svg version="1.1" id="Capa_1" xmlns="http://www.w3.org/2000/svg" xmlns:xlink="http://www.w3.org/1999/xlink" x="0px" y="0px"
	 viewBox="0 0 24 17" style="enable-background:new 0 0 24 17;" xml:space="preserve">
<style type="text/css">
	.st0{fill:#FFFFFF;}
</style>
<g>
	<path id="Check" class="st0" d="M23.7,0.3c-0.4-0.4-1-0.4-1.4,0L8,14.6L1.7,8.3C1.3,8,0.7,8,0.3,8.3c-0.4,0.4-0.4,1,0,1.4l7,6.9
		c0.4,0.4,1,0.4,1.4,0l15-15C24.1,1.3,24.1,0.7,23.7,0.3C23.3-0.1,24.1,0.7,23.7,0.3z"/>
</g>
</svg>
